Practical-4/waves/star.vcd
$date
	Wed Apr 22 04:24:00 2026
$end
$version
	Icarus Verilog
$end
$timescale
	1ps
$end
$scope module StarCore1_tb $end
$var reg 1 ! clk $end
$var integer 32 " fail_count [31:0] $end
$var integer 32 # test_id [31:0] $end
$scope module uut $end
$var wire 1 ! clk $end
$var wire 1 $ reg_write $end
$var wire 1 % reg_dst $end
$var wire 4 & opcode [3:0] $end
$var wire 1 ' mem_write $end
$var wire 1 ( mem_to_reg $end
$var wire 1 ) mem_read $end
$var wire 1 * jump $end
$var wire 1 + bne $end
$var wire 1 , beq $end
$var wire 1 - alu_src $end
$var wire 2 . alu_op [1:0] $end
$scope module CU $end
$var wire 4 / opcode [3:0] $end
$var reg 2 0 alu_op [1:0] $end
$var reg 1 - alu_src $end
$var reg 1 , beq $end
$var reg 1 + bne $end
$var reg 1 * jump $end
$var reg 1 ) mem_read $end
$var reg 1 ( mem_to_reg $end
$var reg 1 ' mem_write $end
$var reg 1 % reg_dst $end
$var reg 1 $ reg_write $end
$upscope $end
$scope module DU $end
$var wire 2 1 alu_op [1:0] $end
$var wire 1 - alu_src $end
$var wire 1 , beq $end
$var wire 1 2 beq_taken $end
$var wire 1 + bne $end
$var wire 1 3 bne_taken $end
$var wire 1 ! clk $end
$var wire 1 * jump $end
$var wire 1 ) mem_read $end
$var wire 1 ( mem_to_reg $end
$var wire 1 ' mem_write $end
$var wire 1 % reg_dst $end
$var wire 1 $ reg_write $end
$var wire 1 4 zero_flag $end
$var wire 3 5 reg_write_dest [2:0] $end
$var wire 16 6 reg_write_data [15:0] $end
$var wire 16 7 reg_read_data_2 [15:0] $end
$var wire 16 8 reg_read_data_1 [15:0] $end
$var wire 3 9 reg_read_addr_2 [2:0] $end
$var wire 3 : reg_read_addr_1 [2:0] $end
$var wire 16 ; pc_next [15:0] $end
$var wire 16 < pc_jump [15:0] $end
$var wire 16 = pc_branch [15:0] $end
$var wire 16 > pc_after_branch [15:0] $end
$var wire 16 ? pc2 [15:0] $end
$var wire 4 @ opcode [3:0] $end
$var wire 16 A mem_read_data [15:0] $end
$var wire 16 B instr [15:0] $end
$var wire 16 C ext_im [15:0] $end
$var wire 16 D alu_result [15:0] $end
$var wire 16 E alu_operand_b [15:0] $end
$var wire 3 F alu_control [2:0] $end
$var reg 16 G pc_current [15:0] $end
$scope module alu_ctrl $end
$var wire 2 H ALUOp [1:0] $end
$var wire 4 I Opcode [3:0] $end
$var wire 6 J control_in [5:0] $end
$var reg 3 K ALU_Cnt [2:0] $end
$upscope $end
$scope module alu_unit $end
$var wire 3 L alu_control [2:0] $end
$var wire 16 M b [15:0] $end
$var wire 1 4 zero $end
$var wire 16 N a [15:0] $end
$var reg 16 O result [15:0] $end
$upscope $end
$scope module dm $end
$var wire 1 ! clk $end
$var wire 16 P mem_access_addr [15:0] $end
$var wire 1 ) mem_read $end
$var wire 1 ' mem_write_en $end
$var wire 3 Q ram_addr [2:0] $end
$var wire 16 R mem_write_data [15:0] $end
$var wire 16 S mem_read_data [15:0] $end
$upscope $end
$scope module im $end
$var wire 16 T instruction [15:0] $end
$var wire 16 U pc [15:0] $end
$var wire 4 V rom_addr [3:0] $end
$upscope $end
$scope module reg_file $end
$var wire 1 ! clk $end
$var wire 3 W reg_read_addr_1 [2:0] $end
$var wire 3 X reg_read_addr_2 [2:0] $end
$var wire 16 Y reg_read_data_1 [15:0] $end
$var wire 16 Z reg_read_data_2 [15:0] $end
$var wire 16 [ reg_write_data [15:0] $end
$var wire 3 \ reg_write_dest [2:0] $end
$var wire 1 $ reg_write_en $end
$var integer 32 ] i [31:0] $end
$upscope $end
$upscope $end
$upscope $end
$scope task check16 $end
$var reg 16 ^ expected [15:0] $end
$var reg 16 _ got [15:0] $end
$var reg 64 ` id [63:0] $end
$upscope $end
$upscope $end
$enddefinitions $end
$comment Show the parameter values. $end
$dumpall
$end
#0
$dumpvars
bx `
bx _
bx ^
b1000 ]
b0 \
b1 [
b0 Z
b0 Y
b0 X
b10 W
b0 V
b0 U
b10000000000 T
b1 S
b0 R
b0 Q
b0 P
b0 O
b0 N
b0 M
b0 L
b0 K
b100000 J
b0 I
b10 H
b0 G
b0 F
b0 E
b0 D
b0 C
b10000000000 B
b1 A
b0 @
b10 ?
b10 >
b10 =
b100000000000 <
b10 ;
b10 :
b0 9
b0 8
b0 7
b1 6
b0 5
14
03
02
b10 1
b10 0
b0 /
b10 .
1-
0,
0+
0*
1)
1(
0'
b0 &
0%
1$
b1 #
b0 "
0!
$end
#5000
b10 6
b10 [
b10 A
b10 S
b1 Q
04
b1 D
b1 O
b1 P
b1 E
b1 M
b1 5
b1 \
b100 ;
b100010000010 <
b1 C
b1 9
b1 X
b100 >
b10001000001 B
b10001000001 T
b1 V
b0 7
b0 R
b0 Z
b110 =
b100 ?
b10 G
b10 U
1!
#10000
0!
#15000
b11 6
b11 [
b11 Q
b10 5
b10 \
b0 A
b0 S
b10 E
b10 M
b11 D
b11 O
b11 P
1%
b0 .
b0 0
b0 1
b0 H
0)
1$
0(
0-
b110 ;
b10100000 <
b10 J
b10 I
b10000 C
b1 8
b1 N
b1 Y
b0 :
b0 W
b10 &
b10 /
b10 @
b110 >
b10000001010000 B
b10000001010000 T
b10 V
b100110 =
b110 ?
b100 G
b100 U
b10 7
b10 R
b10 Z
1!
#20000
0!
#25000
b10 Q
b10 6
b10 [
b0 E
b0 M
b10 D
b10 O
b10 P
b10 .
b10 0
b10 1
b10 H
1'
1-
0$
0%
b1000 ;
b10100000000 <
b100001 J
b1 I
b0 C
b11 7
b11 R
b11 Z
b10 9
b10 X
b10 8
b10 N
b10 Y
b1 :
b1 W
b1 &
b1 /
b1 @
b1000 >
b1001010000000 B
b1001010000000 T
b11 V
b1000 =
b1000 ?
b110 G
b110 U
1!
#30000
0!
#35000
b111 Q
b1111111111111111 6
b1111111111111111 [
b1 F
b1 K
b1 L
b10 E
b10 M
b1111111111111111 D
b1111111111111111 O
b1111111111111111 P
1$
1%
b0 .
b0 0
b0 1
b0 H
0'
0-
b1010 ;
b10100000 <
b11 J
b11 I
b10000 C
b10 7
b10 R
b10 Z
b1 9
b1 X
b1 8
b1 N
b1 Y
b0 :
b0 W
b11 &
b11 /
b11 @
b1010 >
b11000001010000 B
b11000001010000 T
b100 V
b101010 =
b1010 ?
b1000 G
b1000 U
1!
#40000
0!
#45000
b0 Q
b0 6
b0 [
14
b0 D
b0 O
b0 P
b101 F
b101 K
b101 L
1$
1%
b1100 ;
b111 J
b111 I
b111 &
b111 /
b111 @
b1100 >
b111000001010000 B
b111000001010000 T
b101 V
b101100 =
b1100 ?
b1010 G
b1010 U
1!
#50000
0!
#55000
b11 Q
b11 6
b11 [
04
b11 D
b11 O
b11 P
b110 F
b110 K
b110 L
1$
1%
b1110 ;
b1000 J
b1000 I
b1000 &
b1000 /
b1000 @
b1110 >
b1000000001010000 B
b1000000001010000 T
b110 V
b101110 =
b1110 ?
b1100 G
b1100 U
1!
#60000
0!
#65000
b1 Q
b1 6
b1 [
b1 D
b1 O
b1 P
b111 F
b111 K
b111 L
1$
1%
b10000 ;
b1001 J
b1001 I
b1001 &
b1001 /
b1001 @
b10000 >
b1001000001010000 B
b1001000001010000 T
b111 V
b110000 =
b10000 ?
b1110 G
b1110 U
1!
#70000
0!
#75000
b10 Q
b10 6
b10 [
b10 D
b10 O
b10 P
b0 F
b0 K
b0 L
b0 5
b0 \
b1 E
b1 M
1$
1%
b10010 ;
b0 <
b10 J
b10 I
b0 C
b1 7
b1 R
b1 Z
b0 9
b0 X
b10 &
b10 /
b10 @
b10010 >
b10000000000000 B
b10000000000000 T
b1000 V
b10010 =
b10010 ?
b10000 G
b10000 U
1!
#80000
0!
#85000
12
14
b1 5
b1 \
b1 F
b1 K
b1 L
b1 .
b1 0
b1 1
b1 H
1,
0$
0%
b0 Q
b0 6
b0 [
b10110 ;
b10000010 <
b11011 J
b1011 I
b1 C
b1 9
b1 X
b1011 &
b1011 /
b1011 @
b0 D
b0 O
b0 P
b10 E
b10 M
b10110 >
b1011000001000001 B
b1011000001000001 T
b1001 V
b10 8
b10 N
b10 Y
b10 7
b10 R
b10 Z
b10110 =
b10100 ?
b10010 G
b10010 U
1!
#90000
0!
#95000
b100 Q
b100 6
b100 [
04
b100 D
b100 O
b100 P
02
b0 F
b0 K
b0 L
b0 5
b0 \
1*
b0 .
b0 0
b0 1
b0 H
0,
b0 ;
b0 <
b1101 J
b1101 I
b0 C
b0 9
b0 X
b1101 &
b1101 /
b1101 @
b11000 >
b1101000000000000 B
b1101000000000000 T
b1011 V
b11000 =
b11000 ?
b10110 G
b10110 U
1!
#100000
0!
#105000
b1 Q
b10 A
b10 S
b10 6
b10 [
b0 E
b0 M
b10 ;
b1 D
b1 O
b1 P
b10 .
b10 0
b10 1
b10 H
1)
1$
1(
1-
0*
b100000000000 <
b100000 J
b0 I
b1 8
b1 N
b1 Y
b10 :
b10 W
b0 &
b0 /
b0 @
b10 >
b10000000000 B
b10000000000 T
b0 V
b10 =
b10 ?
b0 G
b0 U
1!
#110000
0!
#115000
b11 6
b11 [
b11 A
b11 S
b10 Q
b10 D
b10 O
b10 P
b1 E
b1 M
b1 5
b1 \
b100 ;
b100010000010 <
b1 C
b1 9
b1 X
b100 >
b10001000001 B
b10001000001 T
b1 V
b110 =
b100 ?
b10 G
b10 U
1!
#120000
0!
#125000
b101 6
b101 [
b101 Q
b10 5
b10 \
b0 A
b0 S
b11 E
b11 M
b101 D
b101 O
b101 P
1%
b0 .
b0 0
b0 1
b0 H
0)
1$
0(
0-
b110 ;
b10100000 <
b10 J
b10 I
b10000 C
b10 8
b10 N
b10 Y
b0 :
b0 W
b10 &
b10 /
b10 @
b110 >
b10000001010000 B
b10000001010000 T
b10 V
b11 7
b11 R
b11 Z
b100110 =
b110 ?
b100 G
b100 U
1!
#130000
0!
#135000
b11 Q
b11 6
b11 [
b0 E
b0 M
b11 D
b11 O
b11 P
b10 .
b10 0
b10 1
b10 H
1'
1-
0$
0%
b1000 ;
b10100000000 <
b100001 J
b1 I
b0 C
b101 7
b101 R
b101 Z
b10 9
b10 X
b11 8
b11 N
b11 Y
b1 :
b1 W
b1 &
b1 /
b1 @
b1000 >
b1001010000000 B
b1001010000000 T
b11 V
b1000 =
b1000 ?
b110 G
b110 U
1!
#140000
0!
#145000
b111 Q
b1111111111111111 6
b1111111111111111 [
b1 F
b1 K
b1 L
b11 E
b11 M
b1111111111111111 D
b1111111111111111 O
b1111111111111111 P
1$
1%
b0 .
b0 0
b0 1
b0 H
0'
0-
b1010 ;
b10100000 <
b11 J
b11 I
b10000 C
b11 7
b11 R
b11 Z
b1 9
b1 X
b10 8
b10 N
b10 Y
b0 :
b0 W
b11 &
b11 /
b11 @
b1010 >
b11000001010000 B
b11000001010000 T
b100 V
b101010 =
b1010 ?
b1000 G
b1000 U
1!
#150000
0!
#155000
b10 Q
b10 6
b10 [
b10 D
b10 O
b10 P
b101 F
b101 K
b101 L
1$
1%
b1100 ;
b111 J
b111 I
b111 &
b111 /
b111 @
b1100 >
b111000001010000 B
b111000001010000 T
b101 V
b101100 =
b1100 ?
b1010 G
b1010 U
1!
#160000
0!
#165000
b11 Q
b11 6
b11 [
b11 D
b11 O
b11 P
b110 F
b110 K
b110 L
1$
1%
b1110 ;
b1000 J
b1000 I
b1000 &
b1000 /
b1000 @
b1110 >
b1000000001010000 B
b1000000001010000 T
b110 V
b101110 =
b1110 ?
b1100 G
b1100 U
1!
#170000
0!
#175000
b1 Q
b1 6
b1 [
b1 D
b1 O
b1 P
b111 F
b111 K
b111 L
1$
1%
b10000 ;
b1001 J
b1001 I
b1001 &
b1001 /
b1001 @
b10000 >
b1001000001010000 B
b1001000001010000 T
b111 V
b110000 =
b10000 ?
b1110 G
b1110 U
1!
#180000
0!
#185000
b100 Q
b100 6
b100 [
b100 D
b100 O
b100 P
b0 F
b0 K
b0 L
b0 5
b0 \
b10 E
b10 M
1$
1%
b10010 ;
b0 <
b10 J
b10 I
b0 C
b10 7
b10 R
b10 Z
b0 9
b0 X
b10 &
b10 /
b10 @
b10010 >
b10000000000000 B
b10000000000000 T
b1000 V
b10010 =
b10010 ?
b10000 G
b10000 U
1!
#190000
0!
#195000
b1 5
b1 \
b1 F
b1 K
b1 L
b1 .
b1 0
b1 1
b1 H
1,
0$
0%
b10100 ;
b10000010 <
b11011 J
b1011 I
b1 C
b1 9
b1 X
b1011 &
b1011 /
b1011 @
b1 Q
b1 6
b1 [
b10100 >
b1011000001000001 B
b1011000001000001 T
b1001 V
b1 D
b1 O
b1 P
b11 E
b11 M
b10110 =
b10100 ?
b10010 G
b10010 U
b100 8
b100 N
b100 Y
b11 7
b11 R
b11 Z
1!
#200000
0!
#205000
13
1+
b1 .
b1 0
b1 1
b1 H
0,
b10110 ;
b10000000 <
b11100 J
b1100 I
b0 C
b1100 &
b1100 /
b1100 @
b10110 >
b1100000001000000 B
b1100000001000000 T
b1010 V
b10110 =
b10110 ?
b10100 G
b10100 U
1!
#210000
0!
#215000
b0 Q
b1000 6
b1000 [
b1000 D
b1000 O
b1000 P
03
b0 F
b0 K
b0 L
b0 5
b0 \
b100 E
b100 M
1*
b0 .
b0 0
b0 1
b0 H
0+
b0 ;
b0 <
b1101 J
b1101 I
b100 7
b100 R
b100 Z
b0 9
b0 X
b1101 &
b1101 /
b1101 @
b11000 >
b1101000000000000 B
b1101000000000000 T
b1011 V
b11000 =
b11000 ?
b10110 G
b10110 U
1!
#220000
0!
#225000
b1 Q
b10 A
b10 S
b10 6
b10 [
b0 E
b0 M
b10 ;
b1 D
b1 O
b1 P
b10 .
b10 0
b10 1
b10 H
1)
1$
1(
1-
0*
b100000000000 <
b100000 J
b0 I
b1 8
b1 N
b1 Y
b10 :
b10 W
b0 &
b0 /
b0 @
b10 >
b10000000000 B
b10000000000 T
b0 V
b10 =
b10 ?
b0 G
b0 U
1!
#230000
0!
#235000
b11 6
b11 [
b11 A
b11 S
b10 Q
b10 D
b10 O
b10 P
b1 E
b1 M
b1 5
b1 \
b100 ;
b100010000010 <
b1 C
b1 9
b1 X
b100 >
b10001000001 B
b10001000001 T
b1 V
b110 =
b100 ?
b10 G
b10 U
b11 7
b11 R
b11 Z
1!
#240000
0!
#245000
b101 6
b101 [
b101 Q
b10 5
b10 \
b0 A
b0 S
b11 E
b11 M
b101 D
b101 O
b101 P
1%
b0 .
b0 0
b0 1
b0 H
0)
1$
0(
0-
b110 ;
b10100000 <
b10 J
b10 I
b10000 C
b10 8
b10 N
b10 Y
b0 :
b0 W
b10 &
b10 /
b10 @
b110 >
b10000001010000 B
b10000001010000 T
b10 V
b100110 =
b110 ?
b100 G
b100 U
1!
#250000
0!
#255000
b11 Q
b11 6
b11 [
b0 E
b0 M
b11 D
b11 O
b11 P
b10 .
b10 0
b10 1
b10 H
1'
1-
0$
0%
b1000 ;
b10100000000 <
b100001 J
b1 I
b0 C
b101 7
b101 R
b101 Z
b10 9
b10 X
b11 8
b11 N
b11 Y
b1 :
b1 W
b1 &
b1 /
b1 @
b1000 >
b1001010000000 B
b1001010000000 T
b11 V
b1000 =
b1000 ?
b110 G
b110 U
1!
#260000
0!
#265000
b111 Q
b1111111111111111 6
b1111111111111111 [
b1 F
b1 K
b1 L
b11 E
b11 M
b1111111111111111 D
b1111111111111111 O
b1111111111111111 P
1$
1%
b0 .
b0 0
b0 1
b0 H
0'
0-
b1010 ;
b10100000 <
b11 J
b11 I
b10000 C
b11 7
b11 R
b11 Z
b1 9
b1 X
b10 8
b10 N
b10 Y
b0 :
b0 W
b11 &
b11 /
b11 @
b1010 >
b11000001010000 B
b11000001010000 T
b100 V
b101010 =
b1010 ?
b1000 G
b1000 U
1!
#270000
0!
#275000
b10 Q
b10 6
b10 [
b10 D
b10 O
b10 P
b101 F
b101 K
b101 L
1$
1%
b1100 ;
b111 J
b111 I
b111 &
b111 /
b111 @
b1100 >
b111000001010000 B
b111000001010000 T
b101 V
b101100 =
b1100 ?
b1010 G
b1010 U
1!
#280000
0!
#285000
b11 Q
b11 6
b11 [
b11 D
b11 O
b11 P
b110 F
b110 K
b110 L
1$
1%
b1110 ;
b1000 J
b1000 I
b1000 &
b1000 /
b1000 @
b1110 >
b1000000001010000 B
b1000000001010000 T
b110 V
b101110 =
b1110 ?
b1100 G
b1100 U
1!
#290000
0!
#295000
b1 Q
b1 6
b1 [
b1 D
b1 O
b1 P
b111 F
b111 K
b111 L
1$
1%
b10000 ;
b1001 J
b1001 I
b1001 &
b1001 /
b1001 @
b10000 >
b1001000001010000 B
b1001000001010000 T
b111 V
b110000 =
b10000 ?
b1110 G
b1110 U
1!
#300000
0!
#305000
b100 Q
b100 6
b100 [
b100 D
b100 O
b100 P
b0 F
b0 K
b0 L
b0 5
b0 \
b10 E
b10 M
1$
1%
b10010 ;
b0 <
b10 J
b10 I
b0 C
b10 7
b10 R
b10 Z
b0 9
b0 X
b10 &
b10 /
b10 @
b10010 >
b10000000000000 B
b10000000000000 T
b1000 V
b10010 =
b10010 ?
b10000 G
b10000 U
1!
#310000
0!
#315000
b1 5
b1 \
b1 F
b1 K
b1 L
b1 .
b1 0
b1 1
b1 H
1,
0$
0%
b10100 ;
b10000010 <
b11011 J
b1011 I
b1 C
b1 9
b1 X
b1011 &
b1011 /
b1011 @
b1 Q
b1 6
b1 [
b10100 >
b1011000001000001 B
b1011000001000001 T
b1001 V
b1 D
b1 O
b1 P
b11 E
b11 M
b10110 =
b10100 ?
b10010 G
b10010 U
b100 8
b100 N
b100 Y
b11 7
b11 R
b11 Z
1!
#320000
0!
#325000
13
1+
b1 .
b1 0
b1 1
b1 H
0,
b10110 ;
b10000000 <
b11100 J
b1100 I
b0 C
b1100 &
b1100 /
b1100 @
b10110 >
b1100000001000000 B
b1100000001000000 T
b1010 V
b10110 =
b10110 ?
b10100 G
b10100 U
1!
#330000
0!
#335000
b0 Q
b1000 6
b1000 [
b1000 D
b1000 O
b1000 P
03
b0 F
b0 K
b0 L
b0 5
b0 \
b100 E
b100 M
1*
b0 .
b0 0
b0 1
b0 H
0+
b0 ;
b0 <
b1101 J
b1101 I
b100 7
b100 R
b100 Z
b0 9
b0 X
b1101 &
b1101 /
b1101 @
b11000 >
b1101000000000000 B
b1101000000000000 T
b1011 V
b11000 =
b11000 ?
b10110 G
b10110 U
1!
#340000
0!
#345000
b1 Q
b10 A
b10 S
b10 6
b10 [
b0 E
b0 M
b10 ;
b1 D
b1 O
b1 P
b10 .
b10 0
b10 1
b10 H
1)
1$
1(
1-
0*
b100000000000 <
b100000 J
b0 I
b1 8
b1 N
b1 Y
b10 :
b10 W
b0 &
b0 /
b0 @
b10 >
b10000000000 B
b10000000000 T
b0 V
b10 =
b10 ?
b0 G
b0 U
1!
#350000
0!
#355000
b11 6
b11 [
b11 A
b11 S
b10 Q
b10 D
b10 O
b10 P
b1 E
b1 M
b1 5
b1 \
b100 ;
b100010000010 <
b1 C
b1 9
b1 X
b100 >
b10001000001 B
b10001000001 T
b1 V
b110 =
b100 ?
b10 G
b10 U
b11 7
b11 R
b11 Z
1!
#360000
0!
#365000
b101 6
b101 [
b101 Q
b10 5
b10 \
b0 A
b0 S
b11 E
b11 M
b101 D
b101 O
b101 P
1%
b0 .
b0 0
b0 1
b0 H
0)
1$
0(
0-
b110 ;
b10100000 <
b10 J
b10 I
b10000 C
b10 8
b10 N
b10 Y
b0 :
b0 W
b10 &
b10 /
b10 @
b110 >
b10000001010000 B
b10000001010000 T
b10 V
b100110 =
b110 ?
b100 G
b100 U
1!
#370000
0!
#375000
b11 Q
b11 6
b11 [
b0 E
b0 M
b11 D
b11 O
b11 P
b10 .
b10 0
b10 1
b10 H
1'
1-
0$
0%
b1000 ;
b10100000000 <
b100001 J
b1 I
b0 C
b101 7
b101 R
b101 Z
b10 9
b10 X
b11 8
b11 N
b11 Y
b1 :
b1 W
b1 &
b1 /
b1 @
b1000 >
b1001010000000 B
b1001010000000 T
b11 V
b1000 =
b1000 ?
b110 G
b110 U
1!
#380000
0!
#385000
b111 Q
b1111111111111111 6
b1111111111111111 [
b1 F
b1 K
b1 L
b11 E
b11 M
b1111111111111111 D
b1111111111111111 O
b1111111111111111 P
1$
1%
b0 .
b0 0
b0 1
b0 H
0'
0-
b1010 ;
b10100000 <
b11 J
b11 I
b10000 C
b11 7
b11 R
b11 Z
b1 9
b1 X
b10 8
b10 N
b10 Y
b0 :
b0 W
b11 &
b11 /
b11 @
b1010 >
b11000001010000 B
b11000001010000 T
b100 V
b101010 =
b1010 ?
b1000 G
b1000 U
1!
#390000
0!
#395000
b10 Q
b10 6
b10 [
b10 D
b10 O
b10 P
b101 F
b101 K
b101 L
1$
1%
b1100 ;
b111 J
b111 I
b111 &
b111 /
b111 @
b1100 >
b111000001010000 B
b111000001010000 T
b101 V
b101100 =
b1100 ?
b1010 G
b1010 U
1!
#400000
0!
#405000
b11 Q
b11 6
b11 [
b11 D
b11 O
b11 P
b110 F
b110 K
b110 L
1$
1%
b1110 ;
b1000 J
b1000 I
b1000 &
b1000 /
b1000 @
b1110 >
b1000000001010000 B
b1000000001010000 T
b110 V
b101110 =
b1110 ?
b1100 G
b1100 U
1!
#410000
0!
#415000
b1 Q
b1 6
b1 [
b1 D
b1 O
b1 P
b111 F
b111 K
b111 L
1$
1%
b10000 ;
b1001 J
b1001 I
b1001 &
b1001 /
b1001 @
b10000 >
b1001000001010000 B
b1001000001010000 T
b111 V
b110000 =
b10000 ?
b1110 G
b1110 U
1!
#420000
0!
#425000
b100 Q
b100 6
b100 [
b100 D
b100 O
b100 P
b0 F
b0 K
b0 L
b0 5
b0 \
b10 E
b10 M
1$
1%
b10010 ;
b0 <
b10 J
b10 I
b0 C
b10 7
b10 R
b10 Z
b0 9
b0 X
b10 &
b10 /
b10 @
b10010 >
b10000000000000 B
b10000000000000 T
b1000 V
b10010 =
b10010 ?
b10000 G
b10000 U
1!
#430000
0!
#435000
b1 5
b1 \
b1 F
b1 K
b1 L
b1 .
b1 0
b1 1
b1 H
1,
0$
0%
b10100 ;
b10000010 <
b11011 J
b1011 I
b1 C
b1 9
b1 X
b1011 &
b1011 /
b1011 @
b1 Q
b1 6
b1 [
b10100 >
b1011000001000001 B
b1011000001000001 T
b1001 V
b1 D
b1 O
b1 P
b11 E
b11 M
b10110 =
b10100 ?
b10010 G
b10010 U
b100 8
b100 N
b100 Y
b11 7
b11 R
b11 Z
1!
#440000
0!
#445000
13
1+
b1 .
b1 0
b1 1
b1 H
0,
b10110 ;
b10000000 <
b11100 J
b1100 I
b0 C
b1100 &
b1100 /
b1100 @
b10110 >
b1100000001000000 B
b1100000001000000 T
b1010 V
b10110 =
b10110 ?
b10100 G
b10100 U
1!
#450000
0!
#455000
b0 Q
b1000 6
b1000 [
b1000 D
b1000 O
b1000 P
03
b0 F
b0 K
b0 L
b0 5
b0 \
b100 E
b100 M
1*
b0 .
b0 0
b0 1
b0 H
0+
b0 ;
b0 <
b1101 J
b1101 I
b100 7
b100 R
b100 Z
b0 9
b0 X
b1101 &
b1101 /
b1101 @
b11000 >
b1101000000000000 B
b1101000000000000 T
b1011 V
b11000 =
b11000 ?
b10110 G
b10110 U
1!
#460000
0!
#465000
b1 Q
b10 A
b10 S
b10 6
b10 [
b0 E
b0 M
b10 ;
b1 D
b1 O
b1 P
b10 .
b10 0
b10 1
b10 H
1)
1$
1(
1-
0*
b100000000000 <
b100000 J
b0 I
b1 8
b1 N
b1 Y
b10 :
b10 W
b0 &
b0 /
b0 @
b10 >
b10000000000 B
b10000000000 T
b0 V
b10 =
b10 ?
b0 G
b0 U
1!
#470000
0!
#475000
b11 6
b11 [
b11 A
b11 S
b10 Q
b10 D
b10 O
b10 P
b1 E
b1 M
b1 5
b1 \
b100 ;
b100010000010 <
b1 C
b1 9
b1 X
b100 >
b10001000001 B
b10001000001 T
b1 V
b110 =
b100 ?
b10 G
b10 U
b11 7
b11 R
b11 Z
1!
#480000
0!
#485000
b101 6
b101 [
b101 Q
b10 5
b10 \
b0 A
b0 S
b11 E
b11 M
b101 D
b101 O
b101 P
1%
b0 .
b0 0
b0 1
b0 H
0)
1$
0(
0-
b110 ;
b10100000 <
b10 J
b10 I
b10000 C
b10 8
b10 N
b10 Y
b0 :
b0 W
b10 &
b10 /
b10 @
b110 >
b10000001010000 B
b10000001010000 T
b10 V
b100110 =
b110 ?
b100 G
b100 U
1!
#490000
0!
#495000
b11 Q
b11 6
b11 [
b0 E
b0 M
b11 D
b11 O
b11 P
b10 .
b10 0
b10 1
b10 H
1'
1-
0$
0%
b1000 ;
b10100000000 <
b100001 J
b1 I
b0 C
b101 7
b101 R
b101 Z
b10 9
b10 X
b11 8
b11 N
b11 Y
b1 :
b1 W
b1 &
b1 /
b1 @
b1000 >
b1001010000000 B
b1001010000000 T
b11 V
b1000 =
b1000 ?
b110 G
b110 U
1!
#500000
0!
#505000
b111 Q
b1111111111111111 6
b1111111111111111 [
b1 F
b1 K
b1 L
b11 E
b11 M
b1111111111111111 D
b1111111111111111 O
b1111111111111111 P
1$
1%
b0 .
b0 0
b0 1
b0 H
0'
0-
b1010 ;
b10100000 <
b11 J
b11 I
b10000 C
b11 7
b11 R
b11 Z
b1 9
b1 X
b10 8
b10 N
b10 Y
b0 :
b0 W
b11 &
b11 /
b11 @
b1010 >
b11000001010000 B
b11000001010000 T
b100 V
b101010 =
b1010 ?
b1000 G
b1000 U
1!
#510000
0!
#515000
b10 Q
b10 6
b10 [
b10 D
b10 O
b10 P
b101 F
b101 K
b101 L
1$
1%
b1100 ;
b111 J
b111 I
b111 &
b111 /
b111 @
b1100 >
b111000001010000 B
b111000001010000 T
b101 V
b101100 =
b1100 ?
b1010 G
b1010 U
1!
#520000
0!
#525000
b11 Q
b11 6
b11 [
b11 D
b11 O
b11 P
b110 F
b110 K
b110 L
1$
1%
b1110 ;
b1000 J
b1000 I
b1000 &
b1000 /
b1000 @
b1110 >
b1000000001010000 B
b1000000001010000 T
b110 V
b101110 =
b1110 ?
b1100 G
b1100 U
1!
#530000
0!
#535000
b1 Q
b1 6
b1 [
b1 D
b1 O
b1 P
b111 F
b111 K
b111 L
1$
1%
b10000 ;
b1001 J
b1001 I
b1001 &
b1001 /
b1001 @
b10000 >
b1001000001010000 B
b1001000001010000 T
b111 V
b110000 =
b10000 ?
b1110 G
b1110 U
1!
#540000
0!
#545000
b100 Q
b100 6
b100 [
b100 D
b100 O
b100 P
b0 F
b0 K
b0 L
b0 5
b0 \
b10 E
b10 M
1$
1%
b10010 ;
b0 <
b10 J
b10 I
b0 C
b10 7
b10 R
b10 Z
b0 9
b0 X
b10 &
b10 /
b10 @
b10010 >
b10000000000000 B
b10000000000000 T
b1000 V
b10010 =
b10010 ?
b10000 G
b10000 U
1!
#550000
0!
#555000
b1 5
b1 \
b1 F
b1 K
b1 L
b1 .
b1 0
b1 1
b1 H
1,
0$
0%
b10100 ;
b10000010 <
b11011 J
b1011 I
b1 C
b1 9
b1 X
b1011 &
b1011 /
b1011 @
b1 Q
b1 6
b1 [
b10100 >
b1011000001000001 B
b1011000001000001 T
b1001 V
b1 D
b1 O
b1 P
b11 E
b11 M
b10110 =
b10100 ?
b10010 G
b10010 U
b100 8
b100 N
b100 Y
b11 7
b11 R
b11 Z
1!
#560000
0!
#565000
13
1+
b1 .
b1 0
b1 1
b1 H
0,
b10110 ;
b10000000 <
b11100 J
b1100 I
b0 C
b1100 &
b1100 /
b1100 @
b10110 >
b1100000001000000 B
b1100000001000000 T
b1010 V
b10110 =
b10110 ?
b10100 G
b10100 U
1!
#570000
0!
#575000
b0 Q
b1000 6
b1000 [
b1000 D
b1000 O
b1000 P
03
b0 F
b0 K
b0 L
b0 5
b0 \
b100 E
b100 M
1*
b0 .
b0 0
b0 1
b0 H
0+
b0 ;
b0 <
b1101 J
b1101 I
b100 7
b100 R
b100 Z
b0 9
b0 X
b1101 &
b1101 /
b1101 @
b11000 >
b1101000000000000 B
b1101000000000000 T
b1011 V
b11000 =
b11000 ?
b10110 G
b10110 U
1!
#580000
0!
#585000
b1 Q
b10 A
b10 S
b10 6
b10 [
b0 E
b0 M
b10 ;
b1 D
b1 O
b1 P
b10 .
b10 0
b10 1
b10 H
1)
1$
1(
1-
0*
b100000000000 <
b100000 J
b0 I
b1 8
b1 N
b1 Y
b10 :
b10 W
b0 &
b0 /
b0 @
b10 >
b10000000000 B
b10000000000 T
b0 V
b10 =
b10 ?
b0 G
b0 U
1!
#590000
0!
#595000
b11 6
b11 [
b11 A
b11 S
b10 Q
b10 D
b10 O
b10 P
b1 E
b1 M
b1 5
b1 \
b100 ;
b100010000010 <
b1 C
b1 9
b1 X
b100 >
b10001000001 B
b10001000001 T
b1 V
b110 =
b100 ?
b10 G
b10 U
b11 7
b11 R
b11 Z
1!
#600000
0!
#605000
b101 6
b101 [
b101 Q
b10 5
b10 \
b0 A
b0 S
b11 E
b11 M
b101 D
b101 O
b101 P
1%
b0 .
b0 0
b0 1
b0 H
0)
1$
0(
0-
b110 ;
b10100000 <
b10 J
b10 I
b10000 C
b10 8
b10 N
b10 Y
b0 :
b0 W
b10 &
b10 /
b10 @
b110 >
b10000001010000 B
b10000001010000 T
b10 V
b100110 =
b110 ?
b100 G
b100 U
1!
#610000
0!
#615000
b11 Q
b11 6
b11 [
b0 E
b0 M
b11 D
b11 O
b11 P
b10 .
b10 0
b10 1
b10 H
1'
1-
0$
0%
b1000 ;
b10100000000 <
b100001 J
b1 I
b0 C
b101 7
b101 R
b101 Z
b10 9
b10 X
b11 8
b11 N
b11 Y
b1 :
b1 W
b1 &
b1 /
b1 @
b1000 >
b1001010000000 B
b1001010000000 T
b11 V
b1000 =
b1000 ?
b110 G
b110 U
1!
